Library/Bee/artifacts/mvdfrm/Unity.Services.Core.ref.dll_B122F1A1160C9981.mvfrm
Library/Bee/artifacts/mvdfrm/UnityEditor.UI.ref.dll_452FB8EBD860BCAB.mvfrm
Library/Bee/artifacts/mvdfrm/UnityEngine.UI.ref.dll_01958F46DE82E516.mvfrm
Library/Bee/artifacts/mvdfrm/Unity.Plastic.Antlr3.Runtime.dll_C0453F13F024B820.mvfrm
Library/Bee/artifacts/mvdfrm/Unity.Plastic.Newtonsoft.Json.dll_EE26995C1D59F315.mvfrm
Library/Bee/artifacts/mvdfrm/Unity.VisualScripting.IonicZip.dll_10EE6AD200FA51AA.mvfrm
Library/Bee/artifacts/mvdfrm/Unity.VisualScripting.YamlDotNet.dll_9742B9E38E7579F2.mvfrm
Library/Bee/artifacts/mvdfrm/Unity.VisualScripting.TextureAssets.dll_2E60E3374F42D7EA.mvfrm
Library/Bee/artifacts/mvdfrm/Unity.VisualScripting.Antlr3.Runtime.dll_48AFE0C4BF3E8A11.mvfrm
Library/Bee/artifacts/mvdfrm/UnityEditor.Graphs.dll_6D5C1FD14B17807E.mvfrm
Library/Bee/artifacts/mvdfrm/UnityEditor.CoreModule.dll_59645C23C38E424C.mvfrm
Library/Bee/artifacts/mvdfrm/UnityEditor.DeviceSimulatorModule.dll_9C04DCB4D1C63135.mvfrm
Library/Bee/artifacts/mvdfrm/UnityEditor.DiagnosticsModule.dll_26A8A4B246CB8E43.mvfrm
Library/Bee/artifacts/mvdfrm/UnityEditor.GraphViewModule.dll_B60A2DE0A1FD07BA.mvfrm
Library/Bee/artifacts/mvdfrm/UnityEditor.PackageManagerUIModule.dll_8237A777A62248A8.mvfrm
Library/Bee/artifacts/mvdfrm/UnityEditor.QuickSearchModule.dll_B1B825BF9FA28A9C.mvfrm
Library/Bee/artifacts/mvdfrm/UnityEditor.SceneTemplateModule.dll_13FD29EC2C2F749D.mvfrm
Library/Bee/artifacts/mvdfrm/UnityEditor.TextCoreFontEngineModule.dll_6038BBF8E4210E4A.mvfrm
Library/Bee/artifacts/mvdfrm/UnityEditor.TextCoreTextEngineModule.dll_A820F26A73A4C768.mvfrm
Library/Bee/artifacts/mvdfrm/UnityEditor.UIBuilderModule.dll_0A92DAFD14B580EE.mvfrm
Library/Bee/artifacts/mvdfrm/UnityEditor.UIElementsModule.dll_FBE56DD99FD3A608.mvfrm
Library/Bee/artifacts/mvdfrm/UnityEditor.UIElementsSamplesModule.dll_DED46E69C8F8B3E5.mvfrm
Library/Bee/artifacts/mvdfrm/UnityEditor.UIServiceModule.dll_4384EC5FFDECD108.mvfrm
Library/Bee/artifacts/mvdfrm/UnityEditor.UnityConnectModule.dll_6383093EF6881702.mvfrm
Library/Bee/artifacts/mvdfrm/UnityEditor.dll_0A8A21EE66EA5589.mvfrm
Library/Bee/artifacts/mvdfrm/UnityEngine.AIModule.dll_5BCF7C1BA3D4BF20.mvfrm
Library/Bee/artifacts/mvdfrm/UnityEngine.AccessibilityModule.dll_46A295832CA59C3A.mvfrm
Library/Bee/artifacts/mvdfrm/UnityEngine.AndroidJNIModule.dll_7A2E56ACE8F314DE.mvfrm
Library/Bee/artifacts/mvdfrm/UnityEngine.AnimationModule.dll_848FAA097C59DC60.mvfrm
Library/Bee/artifacts/mvdfrm/UnityEngine.AssetBundleModule.dll_F5A158B102093F8E.mvfrm
Library/Bee/artifacts/mvdfrm/UnityEngine.AudioModule.dll_4A5CDB068DF52552.mvfrm
Library/Bee/artifacts/mvdfrm/UnityEngine.ClothModule.dll_B145380168120436.mvfrm
Library/Bee/artifacts/mvdfrm/UnityEngine.ClusterInputModule.dll_E31F7E54A80FE9C8.mvfrm
Library/Bee/artifacts/mvdfrm/UnityEngine.ClusterRendererModule.dll_A1B19F2641813EB9.mvfrm
Library/Bee/artifacts/mvdfrm/UnityEngine.CoreModule.dll_7C852F766B93AD77.mvfrm
Library/Bee/artifacts/mvdfrm/UnityEngine.CrashReportingModule.dll_B526B463F037D16F.mvfrm
Library/Bee/artifacts/mvdfrm/UnityEngine.DSPGraphModule.dll_8EA649133884F275.mvfrm
Library/Bee/artifacts/mvdfrm/UnityEngine.DirectorModule.dll_8954E7A9C6242154.mvfrm
Library/Bee/artifacts/mvdfrm/UnityEngine.GIModule.dll_F40BC5293F83A73A.mvfrm
Library/Bee/artifacts/mvdfrm/UnityEngine.GameCenterModule.dll_A47BA0C7AF3405CF.mvfrm
Library/Bee/artifacts/mvdfrm/UnityEngine.GridModule.dll_59F64B6483E8436E.mvfrm
Library/Bee/artifacts/mvdfrm/UnityEngine.HotReloadModule.dll_05D8680F578CF7E2.mvfrm
Library/Bee/artifacts/mvdfrm/UnityEngine.IMGUIModule.dll_82BC7A6D5426B933.mvfrm
Library/Bee/artifacts/mvdfrm/UnityEngine.ImageConversionModule.dll_0DA39CD6C3A5F6AD.mvfrm
Library/Bee/artifacts/mvdfrm/UnityEngine.InputLegacyModule.dll_86E673CF99FAF57F.mvfrm
Library/Bee/artifacts/mvdfrm/UnityEngine.InputModule.dll_B0D2A2B7042D49F6.mvfrm
Library/Bee/artifacts/mvdfrm/UnityEngine.JSONSerializeModule.dll_A6BA1EBF2BE0FCC4.mvfrm
Library/Bee/artifacts/mvdfrm/UnityEngine.LocalizationModule.dll_216C48A73F8BDCC1.mvfrm
Library/Bee/artifacts/mvdfrm/UnityEngine.ParticleSystemModule.dll_0838FDB05E495CFD.mvfrm
Library/Bee/artifacts/mvdfrm/UnityEngine.PerformanceReportingModule.dll_A4409FFCFA387936.mvfrm
Library/Bee/artifacts/mvdfrm/UnityEngine.Physics2DModule.dll_D13599FA1D56D3F5.mvfrm
Library/Bee/artifacts/mvdfrm/UnityEngine.PhysicsModule.dll_16B95813B72C8E63.mvfrm
Library/Bee/artifacts/mvdfrm/UnityEngine.ProfilerModule.dll_BB9B20E05F7DA861.mvfrm
Library/Bee/artifacts/mvdfrm/UnityEngine.RuntimeInitializeOnLoadManagerInitializerModule.dll_F28549BDB50FAEBE.mvfrm
Library/Bee/artifacts/mvdfrm/UnityEngine.ScreenCaptureModule.dll_C0A1CC44404D2926.mvfrm
Library/Bee/artifacts/mvdfrm/UnityEngine.SharedInternalsModule.dll_91B4DBAC3AD3F1FD.mvfrm
Library/Bee/artifacts/mvdfrm/UnityEngine.SpriteMaskModule.dll_8DA81357D0A39B49.mvfrm
Library/Bee/artifacts/mvdfrm/UnityEngine.SpriteShapeModule.dll_0F02860BB7AB7798.mvfrm
Library/Bee/artifacts/mvdfrm/UnityEngine.StreamingModule.dll_39249759CBE1939E.mvfrm
Library/Bee/artifacts/mvdfrm/UnityEngine.SubstanceModule.dll_15CFABA3173491AC.mvfrm
Library/Bee/artifacts/mvdfrm/UnityEngine.SubsystemsModule.dll_F85579B99EEB835C.mvfrm
Library/Bee/artifacts/mvdfrm/UnityEngine.TLSModule.dll_CB2B373117D40E77.mvfrm
Library/Bee/artifacts/mvdfrm/UnityEngine.TerrainModule.dll_30FFD3828CEAD751.mvfrm
Library/Bee/artifacts/mvdfrm/UnityEngine.TerrainPhysicsModule.dll_08B3A683778C578A.mvfrm
Library/Bee/artifacts/mvdfrm/UnityEngine.TextCoreFontEngineModule.dll_DE98374BF71ECD15.mvfrm
Library/Bee/artifacts/mvdfrm/UnityEngine.TextCoreTextEngineModule.dll_26806DBD86A28633.mvfrm
Library/Bee/artifacts/mvdfrm/UnityEngine.TextRenderingModule.dll_E9E13E4EF784A91B.mvfrm
Library/Bee/artifacts/mvdfrm/UnityEngine.TilemapModule.dll_CFFC3B03A4A7B85A.mvfrm
Library/Bee/artifacts/mvdfrm/UnityEngine.UIElementsModule.dll_FC93DB21A217BF53.mvfrm
Library/Bee/artifacts/mvdfrm/UnityEngine.UIElementsNativeModule.dll_CCB15C0D179AB8CA.mvfrm
Library/Bee/artifacts/mvdfrm/UnityEngine.UIModule.dll_57431A49001BC4CC.mvfrm
Library/Bee/artifacts/mvdfrm/UnityEngine.UNETModule.dll_0F2B775FB8A2A2F0.mvfrm
Library/Bee/artifacts/mvdfrm/UnityEngine.UmbraModule.dll_C531871F1B1BD0C5.mvfrm
Library/Bee/artifacts/mvdfrm/UnityEngine.UnityAnalyticsCommonModule.dll_3F7F5D4114211794.mvfrm
Library/Bee/artifacts/mvdfrm/UnityEngine.UnityAnalyticsModule.dll_27D86E7A0A70AEF9.mvfrm
Library/Bee/artifacts/mvdfrm/UnityEngine.UnityConnectModule.dll_50E28D4DF11017AD.mvfrm
Library/Bee/artifacts/mvdfrm/UnityEngine.UnityCurlModule.dll_B7AC4B3AEC6DCE4D.mvfrm
Library/Bee/artifacts/mvdfrm/UnityEngine.UnityTestProtocolModule.dll_9A97245C22F4093B.mvfrm
Library/Bee/artifacts/mvdfrm/UnityEngine.UnityWebRequestAssetBundleModule.dll_5359344DB0D9E48A.mvfrm
Library/Bee/artifacts/mvdfrm/UnityEngine.UnityWebRequestAudioModule.dll_1C3CF3DB80A343CE.mvfrm
Library/Bee/artifacts/mvdfrm/UnityEngine.UnityWebRequestModule.dll_1F42A480CE9A912C.mvfrm
Library/Bee/artifacts/mvdfrm/UnityEngine.UnityWebRequestTextureModule.dll_5143CFE019DC7F63.mvfrm
Library/Bee/artifacts/mvdfrm/UnityEngine.UnityWebRequestWWWModule.dll_F142B3197662429F.mvfrm
Library/Bee/artifacts/mvdfrm/UnityEngine.VFXModule.dll_4C09CF9FEE4177E4.mvfrm
Library/Bee/artifacts/mvdfrm/UnityEngine.VRModule.dll_AA1540CEA1D64A44.mvfrm
Library/Bee/artifacts/mvdfrm/UnityEngine.VehiclesModule.dll_0117E129404DF0EF.mvfrm
Library/Bee/artifacts/mvdfrm/UnityEngine.VideoModule.dll_6F665F71508740F7.mvfrm
Library/Bee/artifacts/mvdfrm/UnityEngine.VirtualTexturingModule.dll_F13E107BF0493955.mvfrm
Library/Bee/artifacts/mvdfrm/UnityEngine.WindModule.dll_F2D40A9EFCCA2BE0.mvfrm
Library/Bee/artifacts/mvdfrm/UnityEngine.XRModule.dll_DCD403D32B1097A2.mvfrm
Library/Bee/artifacts/mvdfrm/UnityEngine.dll_3D2E68C6C55DE26E.mvfrm
Library/Bee/artifacts/mvdfrm/UnityEditor.LinuxStandalone.Extensions.dll_2E85D2B5F4BA6444.mvfrm
Library/Bee/artifacts/mvdfrm/UnityEditor.WebGL.Extensions.dll_2D8542E6D0695F24.mvfrm